{
  "@type": "Completeness",
  "electricityFuel": false,
  "material": true,
  "fertilizer": true,
  "other": false,
  "pesticidesAntibiotics": true,
  "soilAmendments": true,
  "water": true,
  "products": true,
  "coProducts": true,
  "cropResidue": false,
  "manureManagement": true
}
