{
  "@context": "https://www-staging.hestia.earth/schema/Term.jsonld",
  "@id": "GADM-FRA",
  "@type": "Term",
  "name": "France",
  "latitude": 46.55891593,
  "longitude": 2.553552532,
  "gadmFullName": "France",
  "gadmName": "France",
  "gadmId": "FRA",
  "gadmLevel": 0,
  "iso31662Code": "FR",
  "termType": "region"
}
